[
  {
  "model": "croixrouge.service",
  "fields": {
    "sigle":"OPEN",
    "nom_complet":"Office de protection de l'enfance Neuchâtel-est/Val-de-Ruz"
  }
},
{
  "model": "croixrouge.service",
  "fields": {
    "sigle": "OPELOVDT",
    "nom_complet": "Office de protection de l'enfance Neuchâtel-ouest/Val-de-Travers"
  }
},
{
  "model": "croixrouge.service",
  "fields": {
    "sigle": "OPEC",
    "nom_complet": "Office de protection de l'enfance La Chaux-de-Fonds/Le Locle"
  }
}
]
